<?xml version="1.0" encoding="UTF-8"?>
<svg width="21px" height="22px" viewBox="0 0 21 22" version="1.1" xmlns="http://www.w3.org/2000/svg" xmlns:xlink="http://www.w3.org/1999/xlink">
    <!-- Generator: Sketch 45.2 (43514) - http://www.bohemiancoding.com/sketch -->
    <title>abuso_autoridad</title>
    <desc>Created with Sketch.</desc>
    <defs></defs>
    <g id="Page-1" stroke="none" stroke-width="1" fill="none" fill-rule="evenodd">
        <g id="Mobile" transform="translate(-98.000000, -334.000000)" fill="#B96F50">
            <g id="abuso_autoridad" transform="translate(98.000000, 334.000000)">
                <g transform="translate(0.000000, 0.943541)" id="Shape">
                    <path d="M20.5997055,2.02091662 C21.061387,1.55923509 21.061387,0.808002552 20.5997055,0.34627312 C20.1380719,-0.115360497 19.3868873,-0.115456311 18.925062,0.34627312 L18.925062,0.34627312 L3.13969307,16.1315942 C2.89704318,16.1920051 2.67738875,16.3159889 2.49955728,16.4938204 C2.32244443,16.6709811 2.1988918,16.8902044 2.13852875,17.1328064 L2.09100482,17.1803303 C1.84835494,17.2406934 1.62908376,17.3642939 1.45201882,17.5414068 C1.27490596,17.7185196 1.15130543,17.9377429 1.09089447,18.1804407 L1.04337054,18.2279646 C0.800768567,18.2883276 0.58149739,18.4119282 0.404432441,18.589041 C0.143577828,18.8497519 0,19.1964562 0,19.5652936 C0,19.9340831 0.143577828,20.2807874 0.404336626,20.5415462 C0.665095424,20.8023529 1.01184762,20.9459307 1.38063711,20.9459307 C1.7493787,20.9459307 2.09613089,20.802305 2.35688969,20.5415462 C2.53400255,20.3644333 2.65760308,20.1451622 2.71796613,19.9025123 L2.76549006,19.8549884 C3.00813994,19.7946253 3.22741112,19.6710248 3.40447607,19.4939598 C3.58158892,19.316847 3.70518946,19.0976237 3.76560041,18.8549738 L3.81312434,18.807402 C4.05567841,18.7470389 4.27499749,18.6234863 4.45215826,18.4463255 C4.62994181,18.2684941 4.7539256,18.0488396 4.81433656,17.8061898 L5.51349399,17.1070323 L8.08414554,19.6777318 C8.05396401,19.9100816 8.12707037,20.1534022 8.30509346,20.3314732 L8.3480183,20.374398 C8.50036314,20.526695 8.70032773,20.6028195 8.90038812,20.6028195 C9.10044852,20.6028195 9.30046101,20.526695 9.45275794,20.374398 L10.3187282,19.5083799 C10.4662823,19.3608258 10.5475329,19.1646458 10.5475329,18.9560101 C10.5475329,18.7473743 10.4662823,18.5511944 10.318824,18.4036881 L10.2758992,18.3607633 C10.128345,18.2132092 9.93216513,18.1319586 9.72352934,18.1319586 C9.68913199,18.1319586 9.65526161,18.1349768 9.62167867,18.1393363 L7.05141039,15.5691159 L20.5997055,2.02091662 Z M19.3653769,0.786635948 L19.3653769,0.786635948 C19.5843128,0.567748028 19.9405027,0.567795935 20.1592469,0.786635948 C20.3781348,1.00552387 20.3781348,1.36161796 20.1592469,1.58050588 L4.64211024,17.0976425 L3.8482403,16.3037726 L19.3653769,0.786635948 Z M1.38068502,20.3231373 C1.17822926,20.3231373 0.987941932,20.2442821 0.844747361,20.1011355 C0.701648605,19.9580367 0.622793382,19.7677015 0.622793382,19.5652936 C0.622793382,19.3628858 0.701648605,19.1725505 0.844795268,19.029356 C0.944825467,18.9293258 1.07000694,18.8609143 1.20874614,18.8291518 L2.11673098,19.7371367 C2.08496852,19.8758759 2.01660497,20.0011053 1.91657477,20.1011355 C1.77342811,20.24433 1.58309287,20.3231373 1.38068502,20.3231373 Z M2.96411324,19.053597 C2.85402253,19.1636877 2.71360658,19.2359796 2.55800405,19.2626639 C2.54847052,19.2642928 2.53927234,19.2672151 2.52997834,19.2697063 L1.67617653,18.4159524 C1.6786677,18.4066584 1.68159004,18.3975081 1.68321888,18.3879746 C1.70995109,18.2323242 1.78219512,18.0919082 1.89233374,17.9818175 C2.00242444,17.8717268 2.1428404,17.7994348 2.29844293,17.7727505 C2.30318574,17.7719361 2.30773692,17.7702594 2.31243183,17.7692533 L3.17672532,18.6335468 C3.17571927,18.6382417 3.17404252,18.642745 3.17322809,18.6474878 C3.14654379,18.8030424 3.07425185,18.9434584 2.96411324,19.053597 Z M4.01184334,18.0059627 C3.90831591,18.1094901 3.77776884,18.1790514 3.63323287,18.2092329 L2.73674575,17.3127458 C2.76687937,17.1682577 2.8364406,17.0377106 2.94001593,16.9341353 C3.05087315,16.8232781 3.19167236,16.750555 3.34717908,16.7239665 C3.35819773,16.7220981 3.36888103,16.7188404 3.37956433,16.7158223 L4.23010846,17.5663664 C4.2270424,17.5770497 4.22383262,17.587733 4.22191633,17.5987517 C4.19532785,17.7542584 4.12265265,17.8951055 4.01184334,18.0059627 Z M8.40957903,19.1223917 L7.92212344,18.634984 L8.57936209,17.9777454 L9.06676977,18.4651531 L8.40957903,19.1223917 Z M7.48180852,18.1946212 L7.02060607,17.7334187 L7.67784471,17.0761801 L8.13904717,17.5373826 L7.48180852,18.1946212 Z M9.92478742,18.9560101 C9.92478742,18.9804906 9.91879902,19.0276313 9.87841327,19.0679691 L9.01234721,19.9340352 C8.97200936,19.9743731 8.9249166,19.9804094 8.90038812,19.9804094 C8.87585964,19.9804094 8.82876688,19.9743731 8.78847694,19.9340831 L8.74555211,19.8911583 C8.68379975,19.8294059 8.68379975,19.7289446 8.74555211,19.6671922 L9.61157026,18.8011261 C9.65190811,18.7607883 9.69900087,18.754752 9.72352934,18.754752 C9.74805782,18.754752 9.79515058,18.7607883 9.83544052,18.8010782 L9.87836536,18.844051 C9.91879902,18.8843888 9.92478742,18.9315295 9.92478742,18.9560101 Z M7.23752979,16.6358652 L6.58029115,17.2931038 L5.95390473,16.6667174 L6.61114337,16.0094788 L7.23752979,16.6358652 Z" fill-rule="nonzero"></path>
                </g>
            </g>
        </g>
    </g>
</svg>