<?xml version="1.0" encoding="UTF-8"?>
<svg width="15px" height="20px" viewBox="0 0 15 20" version="1.1" xmlns="http://www.w3.org/2000/svg" xmlns:xlink="http://www.w3.org/1999/xlink">
    <!-- Generator: Sketch 45.2 (43514) - http://www.bohemiancoding.com/sketch -->
    <title>Contratación indebida / Nepotismo</title>
    <desc>Created with Sketch.</desc>
    <defs>
        <polygon id="path-1" points="1.35525272e-20 0.6356 1.35525272e-20 19.9996 14.0108 19.9996 14.0108 0.6356"></polygon>
    </defs>
    <g id="Page-1" stroke="none" stroke-width="1" fill="none" fill-rule="evenodd">
        <g id="Mobile" transform="translate(-101.000000, -412.000000)">
            <g id="Contratación-indebida-/-Nepotismo" transform="translate(101.000000, 411.000000)">
                <g>
                    <g id="Group-3" transform="translate(0.000000, 0.364700)">
                        <mask id="mask-2" fill="white">
                            <use xlink:href="#path-1"></use>
                        </mask>
                        <g id="Clip-2"></g>
                        <path d="M13.3838,19.0166 C13.3838,19.2126 13.2248,19.3726 13.0288,19.3726 L0.9828,19.3726 C0.7868,19.3726 0.6278,19.2126 0.6278,19.0166 L0.6278,4.6086 L2.9908,4.6086 C3.5328,4.6086 3.9728,4.1676 3.9728,3.6256 L3.9728,1.2626 L13.0288,1.2626 C13.2248,1.2626 13.3838,1.4216 13.3838,1.6186 L13.3838,19.0166 Z M3.3458,1.7056 L3.3458,3.6256 C3.3458,3.8216 3.1868,3.9806 2.9908,3.9806 L1.0708,3.9806 L3.3458,1.7056 Z M13.0288,0.6356 L3.6598,0.6356 C3.6558,0.6356 3.6528,0.6356 3.6488,0.6356 L3.6388,0.6356 C3.6248,0.6376 3.6118,0.6386 3.5988,0.6406 C3.5988,0.6416 3.5988,0.6416 3.5978,0.6416 C3.5848,0.6436 3.5708,0.6476 3.5578,0.6526 C3.5548,0.6536 3.5528,0.6536 3.5508,0.6546 C3.5378,0.6596 3.5258,0.6646 3.5138,0.6706 C3.5138,0.6706 3.5128,0.6716 3.5118,0.6716 C3.4998,0.6786 3.4878,0.6856 3.4768,0.6936 L3.4698,0.6996 C3.4588,0.7076 3.4478,0.7166 3.4378,0.7266 L0.0918,4.0736 C0.0818,4.0826 0.0728,4.0936 0.0648,4.1046 C0.0628,4.1066 0.0608,4.1096 0.0588,4.1116 C0.0508,4.1226 0.0438,4.1356 0.0368,4.1466 C0.0368,4.1476 0.0358,4.1486 0.0358,4.1486 C0.0298,4.1616 0.0248,4.1726 0.0198,4.1856 C0.0188,4.1876 0.0178,4.1906 0.0168,4.1936 C0.0128,4.2056 0.0088,4.2196 0.0058,4.2326 L0.0058,4.2346 C0.0038,4.2476 0.0018,4.2606 0.0008,4.2726 C0.0008,4.2766 0.0008,4.2806 0.0008,4.2846 C0.0008,4.2876 -0.0002,4.2916 -0.0002,4.2946 L-0.0002,19.0166 C-0.0002,19.5586 0.4408,19.9996 0.9828,19.9996 L13.0288,19.9996 C13.5708,19.9996 14.0108,19.5586 14.0108,19.0166 L14.0108,1.6186 C14.0108,1.0766 13.5708,0.6356 13.0288,0.6356 L13.0288,0.6356 Z" id="Fill-1" fill="#B96F50" mask="url(#mask-2)"></path>
                    </g>
                    <path d="M2.9907,9.9921 L11.0207,9.9921 C11.1937,9.9921 11.3347,9.8511 11.3347,9.6781 C11.3347,9.5051 11.1937,9.3651 11.0207,9.3651 L2.9907,9.3651 C2.8177,9.3651 2.6767,9.5051 2.6767,9.6781 C2.6767,9.8511 2.8177,9.9921 2.9907,9.9921" id="Fill-4" fill="#B96F50"></path>
                    <path d="M2.9907,11.665 L11.0207,11.665 C11.1937,11.665 11.3347,11.525 11.3347,11.352 C11.3347,11.178 11.1937,11.038 11.0207,11.038 L2.9907,11.038 C2.8177,11.038 2.6767,11.178 2.6767,11.352 C2.6767,11.525 2.8177,11.665 2.9907,11.665" id="Fill-6" fill="#B96F50"></path>
                    <path d="M2.9907,13.3378 L7.0057,13.3378 C7.1787,13.3378 7.3197,13.1978 7.3197,13.0248 C7.3197,12.8508 7.1787,12.7108 7.0057,12.7108 L2.9907,12.7108 C2.8177,12.7108 2.6767,12.8508 2.6767,13.0248 C2.6767,13.1978 2.8177,13.3378 2.9907,13.3378" id="Fill-8" fill="#B96F50"></path>
                    <path d="M7.3193,14.6972 C7.3193,14.5242 7.1783,14.3842 7.0063,14.3842 L2.9903,14.3842 C2.8173,14.3842 2.6763,14.5242 2.6763,14.6972 C2.6763,14.8702 2.8173,15.0112 2.9903,15.0112 L7.0063,15.0112 C7.1783,15.0112 7.3193,14.8702 7.3193,14.6972" id="Fill-10" fill="#B96F50"></path>
                    <path d="M8.6577,4.5761 C8.6577,4.2951 8.9907,4.0811 9.3687,4.0031 L9.3687,5.1491 C8.9907,5.0701 8.6577,4.8561 8.6577,4.5761 M10.7067,6.4161 C10.7067,6.6971 10.3737,6.9101 9.9957,6.9891 L9.9957,5.8431 C10.3737,5.9211 10.7067,6.1351 10.7067,6.4161 M8.6577,6.4161 C8.6577,6.2431 8.5167,6.1021 8.3447,6.1021 C8.1707,6.1021 8.0307,6.2431 8.0307,6.4161 C8.0307,7.0281 8.5967,7.5211 9.3687,7.6281 L9.3687,7.6711 C9.3687,7.8441 9.5097,7.9851 9.6827,7.9851 C9.8557,7.9851 9.9957,7.8441 9.9957,7.6711 L9.9957,7.6281 C10.7667,7.5211 11.3347,7.0271 11.3347,6.4161 C11.3347,5.8051 10.7667,5.3101 9.9957,5.2041 L9.9957,4.0031 C10.3737,4.0811 10.7067,4.2951 10.7067,4.5761 C10.7067,4.7491 10.8477,4.8891 11.0207,4.8891 C11.1937,4.8891 11.3347,4.7491 11.3347,4.5761 C11.3347,3.9641 10.7667,3.4701 9.9957,3.3641 L9.9957,3.3211 C9.9957,3.1481 9.8557,3.0071 9.6827,3.0071 C9.5097,3.0071 9.3687,3.1481 9.3687,3.3211 L9.3687,3.3641 C8.5967,3.4701 8.0307,3.9641 8.0307,4.5761 C8.0307,5.1871 8.5967,5.6811 9.3687,5.7881 L9.3687,6.9891 C8.9907,6.9101 8.6577,6.6971 8.6577,6.4161" id="Fill-12" fill="#B96F50"></path>
                    <path d="M11.6377,14.4043 C11.4877,14.3193 11.2957,14.3723 11.2107,14.5233 L10.5657,15.6643 L10.4767,15.5963 C10.4027,15.5393 10.3067,15.5183 10.2147,15.5393 C10.1237,15.5613 10.0457,15.6223 10.0047,15.7063 L9.6787,16.3663 L9.5737,16.2463 C9.4207,16.0703 9.1917,15.9903 8.9627,16.0353 C8.7327,16.0803 8.5497,16.2383 8.4727,16.4593 L8.1137,17.4953 L7.2577,16.4133 C7.2037,16.3463 7.1247,16.3033 7.0397,16.2963 C6.9547,16.2883 6.8697,16.3153 6.8047,16.3713 L5.8957,17.1643 C5.7647,17.2793 5.7517,17.4773 5.8657,17.6073 C5.9787,17.7383 6.1777,17.7513 6.3077,17.6373 L6.9697,17.0613 L7.7867,18.0933 C7.8787,18.2103 8.0177,18.2763 8.1637,18.2763 C8.1907,18.2763 8.2177,18.2743 8.2447,18.2693 C8.4177,18.2403 8.5607,18.1193 8.6177,17.9533 L9.0657,16.6653 C9.0677,16.6613 9.0697,16.6543 9.0817,16.6513 C9.0937,16.6493 9.0977,16.6543 9.1007,16.6583 L9.5147,17.1333 C9.5837,17.2123 9.6877,17.2523 9.7917,17.2383 C9.8957,17.2243 9.9867,17.1593 10.0327,17.0663 L10.3977,16.3273 L10.4697,16.3823 C10.5417,16.4383 10.6347,16.4593 10.7227,16.4413 C10.8117,16.4233 10.8887,16.3673 10.9337,16.2883 L11.7567,14.8323 C11.8417,14.6803 11.7887,14.4893 11.6377,14.4043" id="Fill-14" fill="#B96F50"></path>
                </g>
            </g>
        </g>
    </g>
</svg>