<?xml version="1.0" encoding="UTF-8"?>
<svg width="20px" height="19px" viewBox="0 0 20 19" version="1.1" xmlns="http://www.w3.org/2000/svg" xmlns:xlink="http://www.w3.org/1999/xlink">
    <!-- Generator: Sketch 45.2 (43514) - http://www.bohemiancoding.com/sketch -->
    <title>usurpación_funciones</title>
    <desc>Created with Sketch.</desc>
    <defs>
        <polygon id="path-1" points="19.836 0.8172 19.836 19 0.000330051274 19 0.000330051274 0.8172"></polygon>
    </defs>
    <g id="Page-1" stroke="none" stroke-width="1" fill="none" fill-rule="evenodd">
        <g id="Mobile" transform="translate(-99.000000, -513.000000)">
            <g id="usurpación_funciones" transform="translate(99.000000, 512.000000)">
                <g>
                    <path d="M9.4214,16.0386 L9.4204,16.0386 C9.4174,16.0356 9.4154,16.0316 9.4124,16.0286 C9.4154,16.0316 9.4174,16.0346 9.4214,16.0386 M10.4274,16.0286 C10.4254,16.0316 10.4224,16.0356 10.4204,16.0386 L10.4194,16.0386 C10.4224,16.0346 10.4254,16.0316 10.4274,16.0286 M8.7664,16.5426 C8.7694,16.5456 8.7714,16.5496 8.7744,16.5526 C8.7744,16.5536 8.7754,16.5536 8.7754,16.5536 C8.8494,16.6436 9.1644,16.9626 9.9204,16.9626 C10.6754,16.9626 10.9904,16.6436 11.0664,16.5536 C11.0664,16.5536 11.0664,16.5536 11.0674,16.5526 C11.0684,16.5496 11.0704,16.5456 11.0724,16.5426 C11.1274,16.4726 11.1594,16.3856 11.1594,16.2906 C11.1594,16.0616 10.9744,15.8776 10.7464,15.8776 C10.6184,15.8776 10.5044,15.9346 10.4294,16.0266 C10.4364,16.0186 10.4394,16.0146 10.4394,16.0146 C10.4374,16.0166 10.3054,16.1356 9.9204,16.1356 C9.5334,16.1356 9.4014,16.0166 9.4004,16.0146 C9.4004,16.0146 9.4054,16.0186 9.4104,16.0266 C9.3354,15.9346 9.2214,15.8776 9.0934,15.8776 C8.8654,15.8776 8.6794,16.0616 8.6794,16.2906 C8.6794,16.3856 8.7124,16.4726 8.7664,16.5426" id="Fill-1" fill="#B96F50"></path>
                    <path d="M5.7192,11.7383 L5.7192,11.7393 L7.0742,11.9653 C7.0442,12.0233 7.0282,12.0883 7.0282,12.1583 C7.0282,12.3863 7.2112,12.5713 7.4402,12.5713 C7.6682,12.5713 7.8542,12.3863 7.8542,12.1583 C7.8542,12.1353 7.8512,12.1143 7.8482,12.0943 L8.1992,12.1533 C8.2212,12.1563 8.2442,12.1583 8.2672,12.1583 C8.4952,12.1583 8.6792,11.9733 8.6792,11.7443 C8.6792,11.5403 8.5312,11.3703 8.3352,11.3383 L8.3352,11.3373 L5.8562,10.9243 L5.8562,10.9253 C5.8332,10.9203 5.8112,10.9193 5.7872,10.9193 C5.5592,10.9193 5.3742,11.1033 5.3742,11.3313 C5.3742,11.5363 5.5242,11.7063 5.7192,11.7383" id="Fill-3" fill="#B96F50"></path>
                    <path d="M11.5728,12.1587 C11.5958,12.1587 11.6188,12.1567 11.6408,12.1527 L11.9918,12.0947 C11.9898,12.1147 11.9858,12.1357 11.9858,12.1587 C11.9858,12.3867 12.1728,12.5717 12.3988,12.5717 C12.6288,12.5717 12.8128,12.3867 12.8128,12.1587 C12.8128,12.0887 12.7968,12.0227 12.7648,11.9647 L14.1208,11.7397 L14.1208,11.7387 C14.3158,11.7067 14.4668,11.5357 14.4668,11.3307 C14.4668,11.1037 14.2808,10.9187 14.0518,10.9187 C14.0278,10.9187 14.0068,10.9207 13.9848,10.9257 L13.9838,10.9237 L11.5058,11.3367 L11.5058,11.3377 C11.3088,11.3707 11.1598,11.5397 11.1598,11.7447 C11.1598,11.9737 11.3448,12.1587 11.5728,12.1587" id="Fill-5" fill="#B96F50"></path>
                    <g id="Group-9" transform="translate(0.000000, 0.183100)">
                        <mask id="mask-2" fill="white">
                            <use xlink:href="#path-1"></use>
                        </mask>
                        <g id="Clip-8"></g>
                        <path d="M17.9312,9.5562 C15.6622,9.5562 11.6102,9.4092 7.8472,9.1892 C5.9112,9.0772 4.2112,8.9542 2.9272,8.8332 C2.3212,8.7772 1.8622,8.7262 1.5142,8.6822 C1.6802,8.5752 1.8832,8.4522 2.1292,8.3132 C2.5372,8.0812 2.9262,7.8842 3.1582,7.7712 C3.9592,7.8712 6.6162,8.1822 10.0142,8.3632 C12.1652,8.4772 13.9722,8.5012 15.1082,8.5012 C15.8692,8.5012 16.4262,8.4912 16.7382,8.4832 C16.9632,8.6472 17.3372,8.9222 17.7252,9.2272 C17.8772,9.3472 18.0132,9.4562 18.1332,9.5562 C18.0702,9.5562 18.0012,9.5562 17.9312,9.5562 M15.5252,12.5992 C15.3042,13.1902 15.0252,13.7712 14.7022,14.3232 L14.4782,13.8732 C14.4102,13.7382 14.2702,13.6442 14.1092,13.6442 C13.8802,13.6442 13.6962,13.8302 13.6962,14.0582 C13.6962,14.1242 13.7112,14.1872 13.7392,14.2432 L14.1812,15.1312 C14.0832,15.2702 13.9822,15.4062 13.8782,15.5392 C13.2412,16.3562 12.5202,17.0372 11.7922,17.5102 C11.1322,17.9382 10.4882,18.1742 9.9772,18.1742 C9.4652,18.1742 8.8202,17.9382 8.1602,17.5102 C7.6462,17.1752 7.1362,16.7372 6.6552,16.2202 C6.6642,16.1842 6.6692,16.1462 6.6692,16.1072 C6.6692,15.8792 6.4852,15.6942 6.2562,15.6942 C6.2392,15.6942 6.2182,15.6962 6.2012,15.6992 C6.1592,15.6452 6.1162,15.5932 6.0742,15.5392 C6.0162,15.4652 5.9602,15.3902 5.9052,15.3142 C6.1032,15.2852 6.2562,15.1132 6.2562,14.9072 C6.2562,14.6782 6.0732,14.4932 5.8432,14.4932 C5.6902,14.4932 5.5552,14.5782 5.4832,14.7032 C5.0602,14.0412 4.7002,13.3272 4.4272,12.5992 C4.0722,11.6542 3.8602,10.6952 3.7932,9.7392 C7.3202,10.0302 12.5742,10.2852 16.0952,10.3602 C15.9932,11.1102 15.8032,11.8582 15.5252,12.5992 M3.6962,6.7572 C5.1992,6.8802 10.5022,7.2882 14.1252,7.2882 C15.0382,7.2882 15.8442,7.2632 16.4562,7.2002 C16.4982,7.3572 16.5392,7.5112 16.5802,7.6602 C16.2582,7.6672 15.7572,7.6752 15.1082,7.6752 C13.8832,7.6752 12.1292,7.6482 10.0572,7.5372 C7.0472,7.3772 4.6532,7.1182 3.5992,6.9922 C3.6322,6.9152 3.6622,6.8372 3.6962,6.7572 M4.2332,5.4642 C5.4192,2.6702 5.9532,1.8622 6.1272,1.6432 C6.5942,1.6572 7.5552,2.0352 8.2602,2.3142 C9.0562,2.6282 9.7432,2.8992 10.2492,2.9312 C10.2872,2.9322 10.3272,2.9332 10.3682,2.9332 C10.8632,2.9332 11.4952,2.7532 12.2292,2.5442 C12.9632,2.3342 13.7972,2.0962 14.3632,2.0962 C14.4752,2.0962 14.5512,2.1062 14.6032,2.1162 C14.6822,2.2102 14.9052,2.5292 15.2612,3.4392 C15.5302,4.1232 15.8262,5.0122 16.1392,6.0802 C16.1692,6.1842 16.2012,6.2882 16.2292,6.3902 C13.3272,6.6482 6.2242,6.1272 4.0262,5.9542 C4.0932,5.7922 4.1622,5.6292 4.2332,5.4642 M17.5352,8.0432 C16.9522,5.7882 15.7852,1.6702 14.9582,1.3602 C14.7882,1.2972 14.5872,1.2702 14.3632,1.2702 C13.1202,1.2702 11.2092,2.1072 10.3682,2.1072 C10.3432,2.1072 10.3222,2.1062 10.2992,2.1052 C9.4562,2.0542 7.2102,0.8172 6.1042,0.8172 C5.9742,0.8172 5.8602,0.8342 5.7662,0.8722 C5.1332,1.1272 3.5492,4.8922 2.6692,7.0902 C1.7872,7.5322 -0.4278,8.7152 0.0732,9.2172 C0.2162,9.3602 1.3292,9.5162 2.9602,9.6672 C3.2532,14.7592 7.3102,19.0002 9.9772,19.0002 C12.5172,19.0002 16.3242,15.1462 16.9272,10.3752 C17.2892,10.3802 17.6252,10.3822 17.9312,10.3822 C19.0542,10.3822 19.7652,10.3472 19.8192,10.2662 C20.0232,9.9502 18.4112,8.6942 17.5352,8.0432" id="Fill-7" fill="#B96F50" mask="url(#mask-2)"></path>
                    </g>
                </g>
            </g>
        </g>
    </g>
</svg>